{
  "$id": "https://jtsc-schemas.org/api/account/role/administrator/public-export/finish/response.schema.json",
  "title": "APIResponsePublicExportFinish",
  "description": "Response of the finished public export. Returns an operation item.",
  "type": "object",
  "additionalProperties": false,
  "required": ["is_successful", "data"],
  "properties": {
    "is_successful": {
      "type": "boolean",
      "const": true
    },
    "data": {
      "$ref": "https://jtsc-schemas.org/entities/item.schema.json"
    }
  }
}
