{
  "$id": "https://jtsc-schemas.org/api/account/role/administrator/public-exports/response.schema.json",
  "title": "APIResponsePublicExports",
  "description": "A list of public exports.",
  "type": "object",
  "additionalProperties": false,
  "required": ["is_successful", "data"],
  "properties": {
    "is_successful": {
      "type": "boolean",
      "const": true
    },
    "data": {
      "type": "object",
      "additionalProperties": false,
      "required": ["pagination", "public_exports"],
      "properties": {
        "pagination": {
          "$ref": "http://jtsc-schemas.org/types/pagination/pagination.schema.json"
        },
        "public_exports": {
          "type": "array",
          "items": {
            "$ref": "https://jtsc-schemas.org/entities/public-export/preview.schema.json"
          }
        }
      }
    }
  }
}
