{
  "$id": "https://jtsc-schemas.org/entities/item.schema.json",
  "title": "EntityItem",
  "description": "An entity's item.",
  "type": "object",
  "additionalProperties": false,
  "required": ["id"],
  "properties": {
    "id": {
      "$ref": "http://jtsc-schemas.org/types/numbers/big-serial.schema.json"
    },
    "name": {
      "description": "A human-readable name for the entity",
      "type": "string",
      "minLength": 1
    },
    "public_id": {
      "$ref": "http://jtsc-schemas.org/types/strings/uuid/v4.schema.json"
    }
  }
}
