{
  "$schema": "https://turbo.build/schema.json",
  "tasks": {
    "build": {
      "dependsOn": ["^build"]
    },
    "start": {
      "cache": false,
      "persistent": true
    },
    "develop": {
      "cache": false,
      "persistent": true
    },
    "lint": {
      "dependsOn": ["^lint"]
    },
    "transit": {
      "dependsOn": ["^transit"]
    },
    "test": {
      "cache": false
    }
  }
}
