{
  "$id": "https://jtsc-schemas.org/entities/artist/init.schema.json",
  "title": "ArtistInit",
  "description": "Initializer for the artist.",
  "type": "object",
  "additionalProperties": false,
  "required": [],
  "properties": {
    "sex": {
      "type": "boolean",
      "description": "Is optional because the artist can hide it by using pseudonyms."
    }
  }
}
