{
  "$id": "https://jtsc-schemas.org/api/post/releases/previews/response.schema.json",
  "title": "APIResponsePostReleasePreviews",
  "description": "A successful response for post releases.",
  "type": "object",
  "additionalProperties": false,
  "required": ["is_successful", "data"],
  "properties": {
    "is_successful": {
      "type": "boolean",
      "const": true
    },
    "data": {
      "type": "object",
      "additionalProperties": false,
      "required": ["pagination", "releases"],
      "properties": {
        "pagination": {
          "$ref": "http://jtsc-schemas.org/types/pagination/pagination.schema.json"
        },
        "releases": {
          "type": "array",
          "items": {
            "$ref": "https://jtsc-schemas.org/entities/release/preview.schema.json"
          }
        }
      }
    }
  }
}
