{
  "$id": "https://jtsc-schemas.org/api/account/role/administrator/public-export/sites/remove/response.schema.json",
  "title": "APIResponsePublicExportSitesRemove",
  "description": "Body of the successful API response.",
  "type": "object",
  "additionalProperties": false,
  "required": ["is_successful", "data"],
  "properties": {
    "is_successful": {
      "type": "boolean",
      "const": true
    },
    "data": {
      "description": "A list of removed site IDs.",
      "type": "array",
      "uniqueItems": true,
      "minItems": 1,
      "items": {
        "$ref": "http://jtsc-schemas.org/types/numbers/big-serial.schema.json"
      }
    }
  }
}
